%YAML 1.1
%TAG !u! tag:unity3d.com,2011:
--- !u!114 &11400000
MonoBehaviour:
  m_ObjectHideFlags: 0
  m_CorrespondingSourceObject: {fileID: 0}
  m_PrefabInstance: {fileID: 0}
  m_PrefabAsset: {fileID: 0}
  m_GameObject: {fileID: 0}
  m_Enabled: 1
  m_EditorHideFlags: 0
  m_Script: {fileID: 11500000, guid: 7c36fb68839a9eb4b97df64cdc31f325, type: 3}
  m_Name: CatString
  m_EditorClassIdentifier: 
  phrases:
  - PACO, SAVE ME EZE!
  - I NEED A HERO!
  - CATO CATO IM A CATO
  - ELSA MBODY SAVE ME!
